C:\Users\olivi\git\bitbucket\src\main\java\com\hsee\gl\text\TextReader.java
C:\Users\olivi\git\bitbucket\src\main\java\com\hsee\gl\sprite\impl\ModelImpl.java
C:\Users\olivi\git\bitbucket\src\main\java\com\hsee\gl\impl\androidgles20\sprite\renderer\SpriteRendererAndroidGLES20.java
C:\Users\olivi\git\bitbucket\src\main\java\com\hsee\gl\impl\jogl4\shader\ShaderJogl4.java
C:\Users\olivi\git\bitbucket\src\main\java\com\hsee\gl\impl\androidgles30\HseeAPIAndroidGLES30.java
C:\Users\olivi\git\bitbucket\src\main\java\com\hsee\gl\impl\jogl4\HseeAPIJogl4.java
C:\Users\olivi\git\bitbucket\src\main\java\com\hsee\gl\math\quaternion\Quaternion.java
C:\Users\olivi\git\bitbucket\src\main\java\com\hsee\gl\math\quaternion\test\QuaternionsJUnitTest.java
C:\Users\olivi\git\bitbucket\src\main\java\com\hsee\gl\sprite\Model.java
C:\Users\olivi\git\bitbucket\src\main\java\com\hsee\gl\exception\HseeShaderException.java
C:\Users\olivi\git\bitbucket\src\main\java\com\hsee\gl\light\impl\SpotLightImpl.java
C:\Users\olivi\git\bitbucket\src\main\java\com\hsee\gl\sprite\io\Importer.java
C:\Users\olivi\git\bitbucket\src\main\java\com\hsee\gl\sprite\SpriteSetter.java
C:\Users\olivi\git\bitbucket\src\main\java\com\hsee\gl\math\matrix\Matrix.java
C:\Users\olivi\git\bitbucket\src\main\java\com\hsee\gl\impl\androidgles30\GraphicsGatewayGLES30.java
C:\Users\olivi\git\bitbucket\src\main\java\com\hsee\gl\camera\View.java
C:\Users\olivi\git\bitbucket\src\main\java\com\hsee\gl\sprite\impl\shape\AbstractPlan.java
C:\Users\olivi\git\bitbucket\src\main\java\com\hsee\gl\sprite\Sprite.java
C:\Users\olivi\git\bitbucket\src\main\java\com\hsee\gl\impl\androidgles20\sprite\io\SpriteImporterAndroidGLES20.java
C:\Users\olivi\git\bitbucket\src\main\java\com\hsee\gl\impl\androidgles30\shader\ShaderProgramFactoryAndroidGLES30.java
C:\Users\olivi\git\bitbucket\src\main\java\com\hsee\gl\light\DirectionalLight.java
C:\Users\olivi\git\bitbucket\src\main\java\com\hsee\gl\sprite\impl\MaterialImpl.java
C:\Users\olivi\git\bitbucket\src\main\java\com\hsee\gl\impl\jogl4\shader\ShaderVariableFactoryJogl4.java
C:\Users\olivi\git\bitbucket\src\main\java\com\hsee\gl\math\interpolation\LinearInterpolation.java
C:\Users\olivi\git\bitbucket\src\main\java\com\hsee\gl\text\Glyphs.java
C:\Users\olivi\git\bitbucket\src\main\java\com\hsee\gl\sprite\DrawWay.java
C:\Users\olivi\git\bitbucket\src\main\java\com\hsee\gl\exception\HseeShaderStructureException.java
C:\Users\olivi\git\bitbucket\src\main\java\com\hsee\gl\impl\androidgles20\light\DirectionalLightAndroidGLES20.java
C:\Users\olivi\git\bitbucket\src\main\java\com\hsee\gl\impl\androidgles20\HseeAPIAndroidGLES20.java
C:\Users\olivi\git\bitbucket\src\main\java\com\hsee\gl\impl\androidgles30\sprite\shape\Cube.java
C:\Users\olivi\git\bitbucket\src\main\java\com\hsee\gl\impl\androidgles20\shader\ShaderFactoryAndroidGLES20.java
C:\Users\olivi\git\bitbucket\src\main\java\com\hsee\gl\shader\impl\ShaderImpl.java
C:\Users\olivi\git\bitbucket\src\main\java\com\hsee\gl\math\interpolation\QuadricBezierCurveInterpolation.java
C:\Users\olivi\git\bitbucket\src\main\java\com\hsee\gl\sprite\impl\io\ExportObject.java
C:\Users\olivi\git\bitbucket\src\main\java\com\hsee\example\Painter.java
C:\Users\olivi\git\bitbucket\src\main\java\com\hsee\gl\math\primitive\Vector3.java
C:\Users\olivi\git\bitbucket\src\main\java\com\hsee\gl\text\impl\TextReaderImpl.java
C:\Users\olivi\git\bitbucket\src\main\java\com\hsee\gl\math\quaternion\test\DualQuaternionTest.java
C:\Users\olivi\git\bitbucket\src\main\java\com\hsee\gl\impl\androidgles20\exception\HseeExceptionImpl.java
C:\Users\olivi\git\bitbucket\src\main\java\com\hsee\gl\mvp\ModelViewProjection.java
C:\Users\olivi\git\bitbucket\src\main\java\com\hsee\gl\mvp\ModelViewProjectionListener.java
C:\Users\olivi\git\bitbucket\src\main\java\com\hsee\gl\animation\Animation.java
C:\Users\olivi\git\bitbucket\src\main\java\com\hsee\gl\impl\androidgles30\shader\buffer\storagebuffer\ShaderStorageBufferAndroidGLES30.java
C:\Users\olivi\git\bitbucket\src\main\java\com\hsee\gl\impl\jogl4\shader\ShaderProgramFactoryJogl4.java
C:\Users\olivi\git\bitbucket\src\main\java\com\hsee\gl\sprite\io\InputStreamGetterDefault.java
C:\Users\olivi\git\bitbucket\src\main\java\com\hsee\gl\shader\structure\ShaderStructure.java
C:\Users\olivi\git\bitbucket\src\main\java\com\hsee\gl\text\impl\TextIO.java
C:\Users\olivi\git\bitbucket\src\main\java\com\hsee\gl\impl\jogl4\light\PointLightJogl4.java
C:\Users\olivi\git\bitbucket\src\main\java\com\hsee\gl\math\IHasMatrix.java
C:\Users\olivi\git\bitbucket\src\main\java\com\hsee\gl\math\primitive\Vector4.java
C:\Users\olivi\git\bitbucket\src\main\java\com\hsee\gl\sprite\io\SpriteCompiler.java
C:\Users\olivi\git\bitbucket\src\main\java\com\hsee\gl\text\renderer\TextRenderer.java
C:\Users\olivi\git\bitbucket\src\main\java\com\hsee\gl\sprite\impl\shape\Shape.java
C:\Users\olivi\git\bitbucket\src\main\java\com\hsee\gl\light\impl\LightImpl.java
C:\Users\olivi\git\bitbucket\src\main\java\com\hsee\gl\math\Projection.java
C:\Users\olivi\git\bitbucket\src\main\java\com\hsee\gl\light\impl\DirectionalLightImpl.java
C:\Users\olivi\git\bitbucket\src\main\java\com\hsee\gl\math\interpolation\Interpolation.java
C:\Users\olivi\git\bitbucket\src\main\java\com\hsee\gl\math\Valuable.java
C:\Users\olivi\git\bitbucket\src\main\java\com\hsee\gl\text\TextCompiler.java
C:\Users\olivi\git\bitbucket\src\main\java\com\hsee\gl\impl\androidgles30\sprite\io\SpriteImporterAndroidGLES30.java
C:\Users\olivi\git\bitbucket\src\main\java\com\hsee\gl\text\impl\TextCompilerImpl.java
C:\Users\olivi\git\bitbucket\src\main\java\com\hsee\gl\sprite\impl\io\NormalComputer.java
C:\Users\olivi\git\bitbucket\src\main\java\com\hsee\gl\mvp\impl\ModelViewProjectionImpl.java
C:\Users\olivi\git\bitbucket\src\main\java\com\hsee\gl\shader\impl\ShaderVariableImpl.java
C:\Users\olivi\git\bitbucket\src\main\java\com\hsee\gl\light\SpotLight.java
C:\Users\olivi\git\bitbucket\src\main\java\com\hsee\gl\impl\jogl4\GraphicsGatewayJogl4.java
C:\Users\olivi\git\bitbucket\src\main\java\com\hsee\gl\math\interpolation\CubicBezierCurveInterpolation.java
C:\Users\olivi\git\bitbucket\src\main\java\com\hsee\gl\impl\jogl4\scene\SceneJogl4.java
C:\Users\olivi\git\bitbucket\src\main\java\com\hsee\gl\scene\SceneListener.java
C:\Users\olivi\git\bitbucket\src\main\java\com\hsee\gl\scene\Loop.java
C:\Users\olivi\git\bitbucket\src\main\java\com\hsee\gl\camera\Camera.java
C:\Users\olivi\git\bitbucket\src\main\java\com\hsee\gl\shader\impl\ShaderProgramFactory.java
C:\Users\olivi\git\bitbucket\src\main\java\com\hsee\gl\impl\androidgles30\scene\SceneAndroidGLES30.java
C:\Users\olivi\git\bitbucket\src\main\java\com\hsee\gl\impl\androidgles30\shader\ShaderFactoryAndroidGLES30.java
C:\Users\olivi\git\bitbucket\src\main\java\com\hsee\gl\shader\ShaderProgramPipeline.java
C:\Users\olivi\git\bitbucket\src\main\java\com\hsee\gl\impl\jogl4\shader\ShaderFactoryJogl4.java
C:\Users\olivi\git\bitbucket\src\main\java\com\hsee\gl\light\impl\AmbientImpl.java
C:\Users\olivi\git\bitbucket\src\main\java\com\hsee\gl\impl\androidgles20\GraphicsGatewayGLES20.java
C:\Users\olivi\git\bitbucket\src\main\java\com\hsee\gl\impl\androidgles30\mvp\ModelViewProjectionAndroidGLES30.java
C:\Users\olivi\git\bitbucket\src\main\java\com\hsee\gl\camera\impl\CameraImpl.java
C:\Users\olivi\git\bitbucket\src\main\java\com\hsee\gl\impl\jogl4\light\DirectionalLightJogl4.java
C:\Users\olivi\git\bitbucket\src\main\java\com\hsee\gl\sprite\impl\io\StripCompiler.java
C:\Users\olivi\git\bitbucket\src\main\java\com\hsee\gl\impl\androidgles20\shader\ShaderAndroidGLES20.java
C:\Users\olivi\git\bitbucket\src\main\java\com\hsee\gl\impl\androidgles20\sprite\shape\Cube.java
C:\Users\olivi\git\bitbucket\src\main\java\com\hsee\gl\sprite\MaterialSetter.java
C:\Users\olivi\git\bitbucket\src\main\java\com\hsee\gl\exception\HseeProgramShaderException.java
C:\Users\olivi\git\bitbucket\src\main\java\com\hsee\gl\impl\jogl4\light\SpotLightJogl4.java
C:\Users\olivi\git\bitbucket\src\main\java\com\hsee\gl\impl\androidgles20\text\TextRenderDynamic.java
C:\Users\olivi\git\bitbucket\src\main\java\com\hsee\gl\shader\Shader.java
C:\Users\olivi\git\bitbucket\src\main\java\com\hsee\gl\sprite\impl\texture\TargaTextureReader.java
C:\Users\olivi\git\bitbucket\src\main\java\com\hsee\gl\sprite\impl\io\ImportObject.java
C:\Users\olivi\git\bitbucket\src\main\java\com\hsee\gl\math\primitive\FloatValuable.java
C:\Users\olivi\git\bitbucket\src\main\java\com\hsee\gl\impl\jogl4\shader\buffer\storagebuffer\ShaderStorageBufferJogl4.java
C:\Users\olivi\git\bitbucket\src\main\java\com\hsee\gl\impl\jogl4\sprite\shape\Plan.java
C:\Users\olivi\git\bitbucket\src\main\java\com\hsee\gl\light\Light.java
C:\Users\olivi\git\bitbucket\src\main\java\com\hsee\gl\sprite\Drawable.java
C:\Users\olivi\git\bitbucket\src\main\java\com\hsee\gl\impl\androidgles20\light\PointLightAndroidGLES20.java
C:\Users\olivi\git\bitbucket\src\main\java\com\hsee\gl\scene\RenderListener.java
C:\Users\olivi\git\bitbucket\src\main\java\com\hsee\gl\scene\impl\LoopFps.java
C:\Users\olivi\git\bitbucket\src\main\java\com\hsee\gl\sprite\io\InputStreamGetter.java
C:\Users\olivi\git\bitbucket\src\main\java\com\hsee\gl\sprite\impl\shape\AbstractCube.java
C:\Users\olivi\git\bitbucket\src\main\java\com\hsee\gl\sprite\impl\SpriteImpl.java
C:\Users\olivi\git\bitbucket\src\main\java\com\hsee\gl\impl\androidgles20\shader\ShaderProgramAndroidGLES20.java
C:\Users\olivi\git\bitbucket\src\main\java\com\hsee\gl\exception\HseeException.java
C:\Users\olivi\git\bitbucket\src\main\java\com\hsee\gl\text\impl\TextFactory.java
C:\Users\olivi\git\bitbucket\src\main\java\com\hsee\gl\sprite\impl\io\SimpleCompiler.java
C:\Users\olivi\git\bitbucket\src\main\java\com\hsee\gl\impl\androidgles30\sprite\renderer\SpriteRendererAndroidGLES30.java
C:\Users\olivi\git\bitbucket\src\main\java\com\hsee\gl\math\MatrixTransform.java
C:\Users\olivi\git\bitbucket\src\main\java\com\hsee\gl\math\quaternion\DualQuaternion.java
C:\Users\olivi\git\bitbucket\src\main\java\com\hsee\gl\sprite\impl\io\NUplets.java
C:\Users\olivi\git\bitbucket\src\main\java\com\hsee\gl\sprite\impl\io\ImportExport.java
C:\Users\olivi\git\bitbucket\src\main\java\com\hsee\gl\impl\androidgles20\exception\HseeProgramShaderExceptionAbdroidGLES20.java
C:\Users\olivi\git\bitbucket\src\main\java\com\hsee\gl\impl\androidgles30\shader\ShaderVariableFactoryAndroidGLES30.java
C:\Users\olivi\git\bitbucket\src\main\java\com\hsee\gl\sprite\renderer\SpriteRenderer.java
C:\Users\olivi\git\bitbucket\src\main\java\com\hsee\gl\impl\androidgles20\mvp\ModelViewProjectionAndroidGLES20.java
C:\Users\olivi\git\bitbucket\src\main\java\com\hsee\gl\sprite\io\ImporterSetter.java
C:\Users\olivi\git\bitbucket\src\main\java\com\hsee\gl\impl\androidgles20\sprite\io\InputStreamGetterAndroid.java
C:\Users\olivi\git\bitbucket\src\main\java\com\hsee\gl\impl\androidgles30\sprite\io\InputStreamGetterAndroid.java
C:\Users\olivi\git\bitbucket\src\main\java\com\hsee\gl\HseeAPI.java
C:\Users\olivi\git\bitbucket\src\main\java\com\hsee\gl\impl\androidgles30\sprite\shape\Plan.java
C:\Users\olivi\git\bitbucket\src\main\java\com\hsee\gl\sprite\impl\io\SpriteImporterImpl.java
C:\Users\olivi\git\bitbucket\src\main\java\com\hsee\example\Test.java
C:\Users\olivi\git\bitbucket\src\main\java\com\hsee\gl\impl\androidgles20\shader\buffer\storagebuffer\ShaderStorageBufferAndroidGLES20.java
C:\Users\olivi\git\bitbucket\src\main\java\com\hsee\example\TestJogl4.java
C:\Users\olivi\git\bitbucket\src\main\java\com\hsee\gl\shader\ShaderProgram.java
C:\Users\olivi\git\bitbucket\src\main\java\com\hsee\gl\impl\androidgles20\shader\ShaderVariableFactoryAndroidGLES20.java
C:\Users\olivi\git\bitbucket\src\main\java\com\hsee\gl\light\Ambient.java
C:\Users\olivi\git\bitbucket\src\main\java\com\hsee\gl\impl\androidgles20\shader\ShaderProgramFactoryAndroidGLES20.java
C:\Users\olivi\git\bitbucket\src\main\java\com\hsee\gl\impl\androidgles20\shader\buffer\storagebuffer\MaterialSSB.java
C:\Users\olivi\git\bitbucket\src\main\java\com\hsee\gl\shader\ShaderProgramListener.java
C:\Users\olivi\git\bitbucket\src\main\java\com\hsee\gl\shader\structure\ShaderStructureFactory.java
C:\Users\olivi\git\bitbucket\src\main\java\com\hsee\gl\impl\jogl4\sprite\renderer\SpriteRendererJogl4.java
C:\Users\olivi\git\bitbucket\src\main\java\com\hsee\gl\impl\androidgles20\scene\SceneAndroidGLES20.java
C:\Users\olivi\git\bitbucket\src\main\java\com\hsee\gl\impl\androidgles30\text\TextRenderDynamic.java
C:\Users\olivi\git\bitbucket\src\main\java\com\hsee\gl\camera\CameraSetter.java
C:\Users\olivi\git\bitbucket\src\main\java\com\hsee\gl\shader\impl\structure\ShaderStructureImpl.java
C:\Users\olivi\git\bitbucket\src\main\java\com\hsee\gl\impl\androidgles30\shader\ShaderProgramAndroidGLES30.java
C:\Users\olivi\git\bitbucket\src\main\java\com\hsee\gl\sprite\impl\TextureImpl.java
C:\Users\olivi\git\bitbucket\src\main\java\com\hsee\gl\impl\jogl4\shader\ShaderProgramJogl4.java
C:\Users\olivi\git\bitbucket\src\main\java\com\hsee\gl\scene\Render.java
C:\Users\olivi\git\bitbucket\src\main\java\com\hsee\gl\math\primitive\Vector3Test.java
C:\Users\olivi\git\bitbucket\src\main\java\com\hsee\gl\scene\Scene.java
C:\Users\olivi\git\bitbucket\src\main\java\com\hsee\gl\shader\ShaderFactory.java
C:\Users\olivi\git\bitbucket\src\main\java\com\hsee\gl\impl\androidgles20\sprite\renderer\RecupSpriteRendererAndroidGLES20.java
C:\Users\olivi\git\bitbucket\src\main\java\com\hsee\gl\impl\androidgles30\light\DirectionalLightAndroidGLES30.java
C:\Users\olivi\git\bitbucket\src\main\java\com\hsee\gl\impl\androidgles30\light\SpotLightAndroidGLES30.java
C:\Users\olivi\git\bitbucket\src\main\java\com\hsee\gl\impl\androidgles30\light\PointLightAndroidGLES30.java
C:\Users\olivi\git\bitbucket\src\main\java\com\hsee\gl\math\interpolation\SplineInterpolation.java
C:\Users\olivi\git\bitbucket\src\main\java\com\hsee\gl\math\matrix\MathOperation.java
C:\Users\olivi\git\bitbucket\src\main\java\com\hsee\gl\impl\androidgles30\exception\HseeProgramShaderExceptionAbdroidgles30.java
C:\Users\olivi\git\bitbucket\src\main\java\com\hsee\gl\impl\androidgles20\light\SpotLightAndroidGLES20.java
C:\Users\olivi\git\bitbucket\src\main\java\com\hsee\gl\scene\impl\SceneImpl.java
C:\Users\olivi\git\bitbucket\src\main\java\com\hsee\gl\impl\androidgles30\exception\HseeExceptionImpl.java
C:\Users\olivi\git\bitbucket\src\main\java\com\hsee\gl\shader\ShaderVariable.java
C:\Users\olivi\git\bitbucket\src\main\java\com\hsee\gl\sprite\Material.java
C:\Users\olivi\git\bitbucket\src\main\java\com\hsee\gl\impl\androidgles20\sprite\shape\Plan.java
C:\Users\olivi\git\bitbucket\src\main\java\com\hsee\gl\impl\jogl4\text\TextRenderDynamic.java
C:\Users\olivi\git\bitbucket\src\main\java\com\hsee\gl\sprite\impl\io\ObjUtilParser.java
C:\Users\olivi\git\bitbucket\src\main\java\com\hsee\gl\sprite\impl\renderer\SpriteRendererImpl.java
C:\Users\olivi\git\bitbucket\src\main\java\com\hsee\gl\math\impl\ProjectionImpl.java
C:\Users\olivi\git\bitbucket\src\main\java\com\hsee\gl\exception\HseeMatrixException.java
C:\Users\olivi\git\bitbucket\src\main\java\com\hsee\gl\sprite\Texture.java
C:\Users\olivi\git\bitbucket\src\main\java\com\hsee\gl\shader\impl\ShaderProgramImpl.java
C:\Users\olivi\git\bitbucket\src\main\java\com\hsee\gl\sprite\impl\io\MtlImporter.java
C:\Users\olivi\git\bitbucket\src\main\java\com\hsee\gl\light\impl\PointLightImpl.java
C:\Users\olivi\git\bitbucket\src\main\java\com\hsee\gl\shader\buffer\storagebuffer\ShaderStorageBuffer.java
C:\Users\olivi\git\bitbucket\src\main\java\com\hsee\gl\GraphicsGateway.java
C:\Users\olivi\git\bitbucket\src\main\java\com\hsee\gl\impl\androidgles30\shader\ShaderAndroidGLES30.java
C:\Users\olivi\git\bitbucket\src\main\java\com\hsee\gl\shader\ShaderVariableFactory.java
C:\Users\olivi\git\bitbucket\src\main\java\com\hsee\gl\impl\jogl4\exception\HseeProgramShaderExceptionJogl4.java
C:\Users\olivi\git\bitbucket\src\main\java\com\hsee\gl\impl\jogl4\sprite\shape\Cube.java
C:\Users\olivi\git\bitbucket\src\main\java\com\hsee\gl\math\impl\MatrixTransformImpl.java
C:\Users\olivi\git\bitbucket\src\main\java\com\hsee\gl\impl\jogl4\shader\buffer\storagebuffer\MaterialSSB.java
C:\Users\olivi\git\bitbucket\src\main\java\com\hsee\gl\sprite\impl\io\ObjImporter.java
C:\Users\olivi\git\bitbucket\src\main\java\com\hsee\gl\impl\jogl4\mvp\ModelViewProjectionJogl4.java
C:\Users\olivi\git\bitbucket\src\main\java\com\hsee\gl\impl\jogl4\exception\HseeExceptionImpl.java
C:\Users\olivi\git\bitbucket\src\main\java\com\hsee\gl\impl\androidgles30\shader\buffer\storagebuffer\MaterialSSB.java
C:\Users\olivi\git\bitbucket\src\main\java\com\hsee\gl\impl\jogl4\sprite\io\SpriteImporterJogl4.java
C:\Users\olivi\git\bitbucket\src\main\java\com\hsee\gl\light\PointLight.java
C:\Users\olivi\git\bitbucket\src\main\java\com\hsee\gl\math\primitive\Vector2.java
